rint
   1.272437071838E-01
drint_taus
Layer    1
   1.757016059134E-02
Layer    2
   1.750964990386E-02
Layer    3
   1.744861393204E-02
Layer    4
   1.738690552899E-02
Layer    5
   1.732451211356E-02
Layer    6
   1.726139148978E-02
Layer    7
   1.719752727395E-02
Layer    8
   1.713290915413E-02
Layer    9
   1.706750083495E-02
Layer   10
   1.700129547861E-02
Layer   11
   1.693427287250E-02
Layer   12
   1.686638136680E-02
Layer   13
   1.679760238179E-02
Layer   14
   1.672787456207E-02
Layer   15
   1.665715090636E-02
Layer   16
   1.658538397533E-02
Layer   17
   1.651244316757E-02
Layer   18
   1.643829715459E-02
Layer   19
   1.636291969585E-02
Layer   20
   1.628620730687E-02
Layer   21
   1.620804252771E-02
Layer   22
   1.612827077391E-02
Layer   23
   1.604669620510E-02
Layer   24
   1.596305285956E-02
Layer   25
   1.587701458760E-02
Layer   26
   1.578823334924E-02
Layer   27
   1.569634570785E-02
Layer   28
   1.560069611637E-02
Layer   29
   1.550019916056E-02
Layer   30
   1.539105240298E-02
Layer   31
   1.524547642252E-02
Layer   32
   1.485868070269E-02
Layer   33
   1.321200089369E-02
Layer   34
   8.772914580026E-03
Layer   35
   4.731051876153E-03
Layer   36
   3.300892975430E-03
Layer   37
   2.963640881702E-03
Layer   38
   2.945232618081E-03
Layer   39
   3.043122014305E-03
Layer   40
   3.156681274252E-03
Layer   41
   3.211694103985E-03
Layer   42
   3.196602300080E-03
Layer   43
   3.220736698745E-03
Layer   44
   3.331467904493E-03
Layer   45
   3.607395575652E-03
Layer   46
   4.082354661872E-03
Layer   47
   5.874236535627E-03
Layer   48
   1.035973598327E-02
Layer   49
   1.324250083488E-02
Layer   50
   1.498374822452E-02
drint_taua
Layer    1
  -4.751644442953E-02
Layer    2
   7.568628103246E-02
Layer    3
   7.562524984136E-02
Layer    4
   1.010838362901E-01
Layer    5
   9.877202374893E-02
Layer    6
   3.161623491391E-02
Layer    7
   3.155241304388E-02
Layer    8
  -9.714456954354E-03
Layer    9
  -6.308484926303E-02
Layer   10
  -6.363089354813E-02
Layer   11
  -7.869415560043E-02
Layer   12
  -8.756543968217E-02
Layer   13
  -8.880484908439E-02
Layer   14
  -8.194851625847E-02
Layer   15
  -8.068528762414E-02
Layer   16
  -7.537356206971E-02
Layer   17
  -7.139869312208E-02
Layer   18
  -7.632117974708E-02
Layer   19
  -8.427962521791E-02
Layer   20
  -9.063487086155E-02
Layer   21
  -9.948614498859E-02
Layer   22
  -1.030969535603E-01
Layer   23
  -1.065113793171E-01
Layer   24
  -1.131086776275E-01
Layer   25
  -1.152363323750E-01
Layer   26
  -1.168549385750E-01
Layer   27
  -1.209508722230E-01
Layer   28
  -1.233858120772E-01
Layer   29
  -1.271946673843E-01
Layer   30
  -1.306182248759E-01
Layer   31
  -1.324379459454E-01
Layer   32
  -1.292961067017E-01
Layer   33
  -1.320614313637E-01
Layer   34
  -1.344856591592E-01
Layer   35
  -1.349183582727E-01
Layer   36
  -1.372688129707E-01
Layer   37
  -1.390792332191E-01
Layer   38
  -1.310280365959E-01
Layer   39
  -1.194937907290E-01
Layer   40
  -1.040152249974E-01
Layer   41
  -7.836305750119E-02
Layer   42
  -3.967917472652E-02
Layer   43
   6.511150685181E-03
Layer   44
   6.718195534308E-02
Layer   45
   1.267014014116E-01
Layer   46
   1.686156820021E-01
Layer   47
   2.267623697450E-01
Layer   48
   2.826061508201E-01
Layer   49
   2.947651745296E-01
Layer   50
   3.923072691047E-01
drint_coefs
Layer    1
   7.998089946212E-08
   2.769263990222E-08
  -1.287984658387E-09
  -8.631878173976E-09
  -1.341425996012E-09
   3.701111117338E-09
   8.634535412262E-10
  -1.889797628498E-09
  -6.537663379383E-10
   1.117628894459E-09
   5.334934213701E-10
  -5.713707911532E-10
  -4.323752996060E-10
   3.084376899216E-10
   3.489010485205E-10
  -1.176543333814E-10
  -1.785500701260E-10
Layer    2
   1.127584885787E-08
   3.904088963583E-09
  -1.816222657207E-10
  -1.216918592936E-09
  -1.890899647061E-10
   5.217824605983E-10
   1.217162493782E-10
  -2.664263525351E-10
  -9.216070286751E-11
   1.575671848418E-10
   7.520868461626E-11
  -8.055728401871E-11
  -6.095608666868E-11
   4.348940378081E-11
   4.918958935555E-11
  -1.659317143757E-11
  -2.496837828910E-11
Layer    3
   1.286557532553E-08
   4.454466576370E-09
  -2.072458044639E-10
  -1.388470422359E-09
  -2.157371410568E-10
   5.953382636857E-10
   1.388698620043E-10
  -3.039848581803E-10
  -1.051502856481E-10
   1.797807070594E-10
   8.581016012361E-11
  -9.191562161502E-11
  -6.954956814222E-11
   4.962303247109E-11
   5.612498203711E-11
  -1.893575334417E-11
  -2.825489355633E-11
Layer    4
   1.452885330306E-08
   5.030289109646E-09
  -2.340622563005E-10
  -1.567951401800E-09
  -2.436122543674E-10
   6.722930375294E-10
   1.568143454361E-10
  -3.432788799141E-10
  -1.187392900485E-10
   2.030211275661E-10
   9.690135983251E-11
  -1.037996886881E-10
  -7.854046593771E-11
   5.604139055514E-11
   6.338141962200E-11
  -2.138817431058E-11
  -3.164056667532E-11
Layer    5
   1.656462619612E-08
   5.735051229409E-09
  -2.668905871750E-10
  -1.787620218536E-09
  -2.777258996224E-10
   7.664780388032E-10
   1.787751853849E-10
  -3.913707641936E-10
  -1.353702644849E-10
   2.314654156122E-10
   1.104758058205E-10
  -1.183453232588E-10
  -8.954474693101E-11
   6.389795102867E-11
   7.226309384295E-11
  -2.439109695512E-11
  -3.576551977354E-11
Layer    6
   1.946522602711E-08
   6.739212268363E-09
  -3.136663456801E-10
  -2.100612406436E-09
  -3.263305301082E-10
   9.006776854269E-10
   2.100647755037E-10
  -4.598952850180E-10
  -1.590660092421E-10
   2.719948422872E-10
   1.298167272903E-10
  -1.390710540171E-10
  -1.052237765831E-10
   7.509236296007E-11
   8.491787014128E-11
  -2.866952430600E-11
  -4.166180846593E-11
Layer    7
   2.226747212643E-08
   7.709293467847E-09
  -3.588742631755E-10
  -2.402983571719E-09
  -3.732749176253E-10
   1.030324258155E-09
   2.402865626638E-10
  -5.260962078560E-10
  -1.819544279354E-10
   3.111510737516E-10
   1.484999339892E-10
  -1.590960952145E-10
  -1.203707263073E-10
   8.590966224199E-11
   9.714395750912E-11
  -3.280560313329E-11
  -4.723545201920E-11
Layer    8
   2.607633026553E-08
   9.027839070755E-09
  -4.203281027059E-10
  -2.813972970452E-09
  -4.370781451808E-10
   1.206544058309E-09
   2.813620652944E-10
  -6.160796205828E-10
  -2.130633612676E-10
   3.643744742765E-10
   1.738937715306E-10
  -1.863157996020E-10
  -1.409585497963E-10
   1.006136453395E-10
   1.137619991300E-10
  -3.842806765457E-11
  -5.481265394171E-11
Layer    9
   3.131539131652E-08
   1.084150019102E-08
  -5.048653763890E-10
  -3.379298702384E-09
  -5.248338242373E-10
   1.448942742577E-09
   3.378582105524E-10
  -7.398585087836E-10
  -2.558518391678E-10
   4.375876982044E-10
   2.088220158622E-10
  -2.237593545526E-10
  -1.692767862745E-10
   1.208401228154E-10
   1.366201907343E-10
  -4.616173945451E-11
  -6.521540588975E-11
Layer   10
   3.616299658484E-08
   1.251959000661E-08
  -5.831315765081E-10
  -3.902377326958E-09
  -6.060021911308E-10
   1.673232115452E-09
   3.901160098050E-10
  -8.543948170475E-10
  -2.954336149499E-10
   5.053368417492E-10
   2.411357271430E-10
  -2.584121621578E-10
  -1.954780377024E-10
   1.395615927083E-10
   1.577714704155E-10
  -5.332335981745E-11
  -7.459836102242E-11
Layer   11
   4.248181280657E-08
   1.470692770279E-08
  -6.851832275976E-10
  -4.584202351855E-09
  -7.117830060071E-10
   1.965593935931E-09
   4.582215611910E-10
  -1.003696618692E-09
  -3.470213399370E-10
   5.936521163961E-10
   2.832530373359E-10
  -3.035868792909E-10
  -2.296303994305E-10
   1.639694098040E-10
   1.853427276780E-10
  -6.266254010496E-11
  -8.678549954849E-11
Layer   12
   4.974223768008E-08
   1.722011334325E-08
  -8.025259915628E-10
  -5.367621129504E-09
  -8.332710436304E-10
   2.301529225960E-09
   5.364445984555E-10
  -1.175259099262E-09
  -4.062788048386E-10
   6.951405521829E-10
   3.316377957548E-10
  -3.555065507114E-10
  -2.688700374878E-10
   1.920262064245E-10
   2.170244472333E-10
  -7.340390692064E-11
  -1.006121397366E-10
Layer   13
   5.775430998913E-08
   1.999332451508E-08
  -9.321398749076E-10
  -6.232126074944E-09
  -9.672542250797E-10
   2.672249574059E-09
   6.227197058206E-10
  -1.364598736096E-09
  -4.716450032466E-10
   8.071532029880E-10
   3.850188362021E-10
  -4.128200379563E-10
  -3.121690939936E-10
   2.230049399108E-10
   2.519888407523E-10
  -8.527305378987E-11
  -1.156342261932E-10
Layer   14
   6.630945067909E-08
   2.295420772390E-08
  -1.070759280499E-09
  -7.155181861458E-09
  -1.110172029543E-09
   3.068101604341E-09
   7.147601570213E-10
  -1.566794198869E-09
  -5.413952976816E-10
   9.267862185831E-10
   4.419951551649E-10
  -4.740500020648E-10
  -3.583977752467E-10
   2.561145030444E-10
   2.893281276267E-10
  -9.797591764718E-11
  -1.313826714770E-10
Layer   15
   7.662414336470E-08
   2.652369532114E-08
  -1.238152045364E-09
  -8.268024250268E-09
  -1.282308300657E-09
   3.545371180839E-09
   8.256320944792E-10
  -1.810599846742E-09
  -6.254356518010E-10
   1.071056987116E-09
   5.106624502218E-10
  -5.479104959587E-10
  -4.141281303658E-10
   2.960710772213E-10
   3.343529911489E-10
  -1.133267154337E-10
  -1.501977688184E-10
Layer   16
   8.808837104781E-08
   3.049035485348E-08
  -1.424650282739E-09
  -9.504780346303E-09
  -1.473328071683E-09
   4.075830056485E-09
   9.486916161141E-10
  -2.081615599977E-09
  -7.187468913097E-10
   1.231460385768E-09
   5.869355203662E-10
  -6.300654417898E-10
  -4.760587106976E-10
   3.405444191044E-10
   3.844058566035E-10
  -1.304491611926E-10
  -1.707714662682E-10
Layer   17
   1.013739765701E-07
   3.508617778660E-08
  -1.641498908827E-09
  -1.093783778414E-08
  -1.694215146203E-09
   4.690555874607E-09
   1.091032210506E-09
  -2.395744188204E-09
  -8.267307261248E-10
   1.417431554328E-09
   6.752513307190E-10
  -7.253715179896E-10
  -5.478113484533E-10
   3.921859395652E-10
   4.424271033370E-10
  -1.503905615903E-10
  -1.942957232418E-10
Layer   18
   1.178043993865E-07
   4.076878471942E-08
  -1.910471131200E-09
  -1.270994541637E-08
  -1.966858369857E-09
   5.450809309059E-09
   1.266768657243E-09
  -2.784309369533E-09
  -9.601075919295E-10
   1.647527311521E-09
   7.843894814818E-10
  -8.433518282892E-10
  -6.365295357206E-10
   4.561651334410E-10
   5.142003410831E-10
  -1.751581532490E-10
  -2.231405697193E-10
Layer   19
   1.376879883006E-07
   4.764445745055E-08
  -2.236988888061E-09
  -1.485438382298E-08
  -2.296124742851E-09
   6.370933976993E-09
   1.479058786595E-09
  -3.254688371900E-09
  -1.121301480288E-09
   1.926142497462E-09
   9.163591061531E-10
  -9.862885395188E-10
  -7.438692815640E-10
   5.337375146030E-10
   6.010809162958E-10
  -2.052593300806E-10
  -2.576565881062E-10
Layer   20
   1.608997766436E-07
   5.566911434018E-08
  -2.619756722307E-09
  -1.735763204840E-08
  -2.679439822589E-09
   7.445240500793E-09
   1.726284769086E-09
  -3.804054533526E-09
  -1.309139351585E-09
   2.251656787030E-09
   1.070251791734E-09
  -1.153408427321E-09
  -8.691378533782E-10
   6.245256931671E-10
   7.025397673682E-10
  -2.405977206331E-10
  -2.973499915064E-10
Layer   21
   1.893184194159E-07
   6.549165401786E-08
  -3.090378985652E-09
  -2.042235154073E-08
  -3.147410246471E-09
   8.760820537916E-09
   2.028221607587E-09
  -4.477022474147E-09
  -1.538691706916E-09
   2.650550958415E-09
   1.258457549868E-09
  -1.358354064500E-09
  -1.022458853838E-09
   7.359705672301E-10
   8.268024601896E-10
  -2.841035572875E-10
  -3.453852305916E-10
Layer   22
   2.213897230200E-07
   7.657265762908E-08
  -3.625057297172E-09
  -2.388082160574E-08
  -3.673148327805E-09
   1.024596524397E-08
   2.367629330505E-09
  -5.237119560581E-09
  -1.796994187405E-09
   3.101345606801E-09
   1.470480814346E-09
  -1.590238156199E-09
  -1.195400662953E-09
   8.622607244585E-10
   9.671165855825E-10
  -3.336363352968E-10
  -3.985466999687E-10
Layer   23
   2.591987771764E-07
   8.963071147551E-08
  -4.260161751669E-09
  -2.795781166586E-08
  -4.289760492784E-09
   1.199744080081E-08
   2.765970605284E-09
  -6.134044979422E-09
  -2.100499307902E-09
   3.633634567476E-09
   1.719937527355E-09
  -1.864406117038E-09
  -1.399167940876E-09
   1.011844896368E-09
   1.132640359283E-09
  -3.926151883326E-10
  -4.602027306248E-10
Layer   24
   3.061501832064E-07
   1.058396145873E-07
  -5.055082320383E-09
  -3.302065879293E-08
  -5.051301196974E-09
   1.417347006290E-08
   3.258288346969E-09
  -7.249100731846E-09
  -2.476069836989E-09
   4.295830836959E-09
   2.029059341847E-09
  -2.205959800803E-09
  -1.652055549293E-09
   1.198524155112E-09
   1.338327488861E-09
  -4.666003361955E-10
  -5.358148535932E-10
Layer   25
   3.590213002732E-07
   1.240796252873E-07
  -5.961909342989E-09
  -3.872179552074E-08
  -5.901057422832E-09
   1.662574337162E-08
   3.808292949750E-09
  -8.507042131998E-09
  -2.896516519441E-09
   5.043736380372E-09
   2.375930548487E-09
  -2.592607338083E-09
  -1.936543783031E-09
   1.410472462556E-09
   1.570207834162E-09
  -5.513162282664E-10
  -6.190152885797E-10
Layer   26
   4.209027001237E-07
   1.454108297407E-07
  -7.039207417668E-09
  -4.539435331321E-08
  -6.884987842899E-09
   1.949844538283E-08
   4.446043377502E-09
  -9.982452454798E-09
  -3.385233100465E-09
   5.922111909995E-09
   2.780240309252E-09
  -3.047911973234E-09
  -2.269124151350E-09
   1.660916038427E-09
   1.841957855966E-09
  -6.524002351082E-10
  -7.144117034926E-10
Layer   27
   4.974225714155E-07
   1.717668447296E-07
  -8.391792916755E-09
  -5.364578137897E-08
  -8.088010281357E-09
   2.305437661344E-08
   5.226964543786E-09
  -1.181115833517E-08
  -3.985206739733E-09
   7.012339484469E-09
   3.278033723741E-09
  -3.614576006980E-09
  -2.679871551826E-09
   1.973682393957E-09
   2.178441595664E-09
  -7.798448548348E-10
  -8.304903234083E-10
Layer   28
   5.865210307278E-07
   2.024185201929E-07
  -1.000268125165E-08
  -6.325471695103E-08
  -9.464747995678E-09
   2.720155350113E-08
   6.122708751452E-09
  -1.394817092910E-08
  -4.676136103393E-09
   8.289054933441E-09
   3.853847725702E-09
  -4.280882651795E-09
  -3.157238884391E-09
   2.343303555704E-09
   2.571024090243E-09
  -9.325367454112E-10
  -9.623557619709E-10
Layer   29
   6.963944456539E-07
   2.401677758336E-07
  -1.203889646762E-08
  -7.510671349645E-08
  -1.112923066414E-08
   3.232573466613E-08
   7.208536232910E-09
  -1.659462327793E-08
  -5.517519722669E-09
   9.873872513531E-09
   4.558623415095E-09
  -5.111723358003E-09
  -3.744644652618E-09
   2.806714426492E-09
   3.056219737527E-09
  -1.126751790689E-09
  -1.121692426393E-09
Layer   30
   8.295728541869E-07
   2.858452141461E-07
  -1.458833562647E-08
  -8.947819674748E-08
  -1.309229834412E-08
   3.855416701118E-08
   8.493882094010E-09
  -1.982136203796E-08
  -6.519870287174E-09
   1.181235355100E-08
   5.404157199544E-09
  -6.134065969827E-09
  -4.454526858287E-09
   3.380966369088E-09
   3.646067556801E-09
  -1.371814420590E-09
  -1.310010979833E-09
Layer   31
   9.876291210934E-07
   3.399219710893E-07
  -1.775189988057E-08
  -1.065437358006E-07
  -1.532961646028E-08
   4.597562873336E-08
   9.966941308053E-09
  -2.368310127692E-08
  -7.679621034432E-09
   1.414282222541E-08
   6.392699974283E-09
  -7.373440178086E-09
  -5.293333440629E-09
   4.083943434871E-09
   4.349000219274E-09
  -1.679165676552E-09
  -1.526398914732E-09
Layer   32
   1.172846060634E-06
   4.030481506664E-07
  -2.170047671797E-08
  -1.265511073025E-07
  -1.778927665104E-08
   5.471951976610E-08
   1.160097974245E-08
  -2.826182844653E-08
  -8.985995578994E-09
   1.692452173936E-08
   7.524619598210E-09
  -8.870819571271E-09
  -6.269587641575E-09
   4.945607927789E-09
   5.177661371326E-09
  -2.069108351049E-09
  -1.769217252259E-09
Layer   33
   1.600002207876E-06
   5.486956349388E-07
  -3.075037325209E-08
  -1.726922704498E-07
  -2.349827077455E-08
   7.487622566461E-08
   1.538856750793E-08
  -3.881111650071E-08
  -1.200864552127E-08
   2.333056970256E-08
   1.013922394496E-08
  -1.231581328878E-08
  -8.521051032148E-09
   6.926109027644E-09
   7.086566431709E-09
  -2.963087416761E-09
  -2.346934000616E-09
Layer   34
   3.278454455364E-06
   1.121180551441E-06
  -6.618551507185E-08
  -3.540099732515E-07
  -4.600824693266E-08
   1.540668778143E-07
   3.030739944495E-08
  -8.024481541640E-08
  -2.390031038590E-08
   4.848367913592E-08
   2.041487918397E-08
  -2.583443667260E-08
  -1.736099099771E-08
   1.469189107342E-08
   1.457636990509E-08
  -6.461714504614E-09
  -4.650890850269E-09
Layer   35
   1.160799356504E-05
   3.954349544373E-06
  -2.501264961644E-07
  -1.253928520597E-06
  -1.522011554245E-07
   5.484470493680E-07
   1.011014900437E-07
  -2.875068969213E-07
  -8.096933663265E-08
   1.748989532132E-07
   7.033774646414E-08
  -9.435865770652E-08
  -6.082834830001E-08
   5.445016537677E-08
   5.174857529016E-08
  -2.479727762582E-08
  -1.574071834021E-08
Layer   36
   5.017370893093E-05
   1.698941340044E-05
  -1.185033445179E-06
  -5.416273351987E-06
  -5.865725515978E-07
   2.384028830231E-06
   3.943448760514E-07
  -1.260333144511E-06
  -3.236794781203E-07
   7.736696634354E-07
   2.887411591425E-07
  -4.243963018982E-07
  -2.561175232588E-07
   2.497115011707E-07
   2.220642351706E-07
  -1.189936364340E-07
  -6.283894247838E-08
Layer   37
   2.028300600616E-04
   6.791250073195E-05
  -5.539488208126E-06
  -2.177165777272E-05
  -1.848023629810E-06
   9.649439980809E-06
   1.266111955773E-06
  -5.154455049408E-06
  -1.092110014273E-06
   3.202195708725E-06
   1.026442295620E-06
  -1.797827620643E-06
  -9.535123368091E-07
   1.087508192234E-06
   8.533288385593E-07
  -5.525496729891E-07
  -2.069090167534E-07
Layer   38
   7.150153851737E-04
   2.334070632336E-04
  -2.499076772139E-05
  -7.499242190613E-05
  -2.645753155291E-06
   3.337276202865E-05
   1.945055197591E-06
  -1.802640838444E-05
  -2.099880115363E-06
   1.138023681275E-05
   2.387988984153E-06
  -6.616942623535E-06
  -2.538996607479E-06
   4.180414559362E-06
   2.455273286028E-06
  -2.343372926224E-06
  -3.178037158684E-07
Layer   39
   2.183260671777E-03
   6.743388302491E-04
  -1.083037158249E-04
  -2.140337346827E-04
   1.451914754154E-05
   9.418015233208E-05
  -8.890874075783E-06
  -5.105861843841E-05
   4.115384682493E-06
   3.277878163248E-05
  -3.749626034115E-07
  -1.996815110907E-05
  -2.298074271048E-06
   1.338823117017E-05
   3.540399798763E-06
  -8.502908005705E-06
   1.431332808788E-06
Layer   40
   5.753143469534E-03
   1.612535905549E-03
  -4.029278334251E-04
  -4.856969953603E-04
   1.184205892473E-04
   2.004236277050E-04
  -7.423019683044E-05
  -1.046253550084E-04
   4.648140676085E-05
   6.666166032366E-05
  -2.720013538599E-05
  -4.190988550058E-05
   1.329585660392E-05
   2.956294461125E-05
  -5.330475769549E-06
  -2.095354220349E-05
   1.002158187935E-05
Layer   41
   1.280811037996E-02
   3.145756082228E-03
  -1.125791455514E-03
  -8.330509666343E-04
   4.028663975922E-04
   2.806404146984E-04
  -2.418789375848E-04
  -1.212499336886E-04
   1.528419700158E-04
   6.821177517010E-05
  -9.641943408568E-05
  -4.048995023630E-05
   5.732167865038E-05
   2.902282400512E-05
  -3.411393880315E-05
  -2.312978947391E-05
   2.301999657989E-05
Layer   42
   2.347993452203E-02
   4.994013451996E-03
  -2.218920082792E-03
  -1.068174508690E-03
   7.805051994618E-04
   2.138948884826E-04
  -4.284434911790E-04
  -2.531885975343E-05
   2.559530883021E-04
  -1.435645710230E-05
  -1.586814312847E-04
   1.883071398190E-05
   9.519498990710E-05
  -1.320796412075E-05
  -5.833400270825E-05
   3.938321576327E-06
   2.256454682452E-05
Layer   43
   3.539265023613E-02
   6.539526360304E-03
  -3.139584079666E-03
  -1.104076007399E-03
   9.328093064319E-04
   5.450876669164E-05
  -4.321592535094E-04
   1.064051129100E-04
   2.255652793823E-04
  -1.101124054205E-04
  -1.292998575698E-04
   7.974101693804E-05
   7.111801090042E-05
  -5.355157471627E-05
  -4.010482204970E-05
   2.986104006156E-05
   5.420305898000E-06
Layer   44
   4.470410786706E-02
   7.060950475727E-03
  -3.489140926522E-03
  -1.024615110828E-03
   7.764705334710E-04
  -5.727325126961E-06
  -2.599245995732E-04
   1.230363813740E-04
   9.643164105144E-05
  -1.112708349058E-04
  -4.514062478339E-05
   7.221503523925E-05
   1.723855030289E-05
  -4.581565386014E-05
  -5.971339303607E-06
   2.470573241022E-05
  -4.957491385990E-06
Layer   45
   4.806510721307E-02
   6.163642053309E-03
  -3.391816096719E-03
  -8.299613706590E-04
   5.805796250780E-04
   2.168302024907E-05
  -1.226680787119E-04
   6.134060149481E-05
   1.451065436972E-05
  -5.912829035483E-05
  -4.422668293596E-07
   3.395195474541E-05
  -5.982792831900E-06
  -2.004940401037E-05
   5.202385582942E-06
   8.919529571108E-06
  -2.438764680021E-06
Layer   46
   4.387390003390E-02
   4.293933810131E-03
  -2.920968364674E-03
  -5.408781386623E-04
   4.439926361535E-04
   3.784575977217E-05
  -7.065364919491E-05
   1.300440281301E-05
  -4.181857663234E-06
  -2.087822379129E-05
   5.883280615738E-06
   9.785190981112E-06
  -6.560527885840E-06
  -5.648920487716E-06
   3.642615161862E-06
   1.205236800733E-06
   7.881733769738E-07
Layer   47
   3.847352978577E-02
   2.542062858881E-03
  -2.435927361233E-03
  -2.672795986656E-04
   3.668262026403E-04
   1.760265976122E-05
  -6.006200623760E-05
   6.738554456917E-07
  -1.438425382476E-07
  -8.167325331837E-06
   1.686615309184E-06
   2.023915720094E-06
  -3.404412923371E-06
  -1.102145394866E-06
   1.891103963977E-06
  -1.099280865484E-06
   1.755761145879E-06
Layer   48
   4.678856867062E-02
   1.221887357224E-03
  -2.633143058599E-03
  -3.189165993223E-05
   3.815904480576E-04
  -1.464871150907E-05
  -5.917667881974E-05
  -3.557396754087E-07
  -1.348785638031E-06
  -5.540212130705E-06
   5.798960044842E-07
  -6.109108664375E-07
  -2.298831164983E-06
   3.594840220460E-07
   4.399714220099E-07
  -2.236597470377E-06
   3.625613161379E-06
Layer   49
   5.099194437735E-02
  -1.297304039877E-03
  -2.445649597028E-03
   2.777900990161E-04
   3.495714719171E-04
  -5.141184912393E-05
  -6.568139088556E-05
  -4.843447728814E-06
   5.980655135832E-06
  -3.933631728351E-07
  -4.817158157321E-06
  -3.748591382752E-06
  -2.258466173629E-07
   6.205551139101E-07
  -4.517724898365E-07
  -6.954395958920E-07
   3.481341849486E-06
Layer   50
   2.432167981492E-02
  -2.420252344160E-03
  -1.022330690095E-03
   3.972323388951E-04
   1.537732954570E-04
  -1.177568242017E-04
  -4.868617180790E-05
   3.222648616568E-05
   1.663798138378E-05
  -1.564954059304E-05
  -1.119025743474E-05
   2.348246755095E-06
   2.325256476415E-06
   7.355170020400E-09
   1.554171250801E-06
  -1.980872344994E-06
   1.779724011533E-06
drint_phase_ssg
Layer    1
   6.305928825007E-08
Layer    2
   8.889913680985E-09
Layer    3
   1.014313005750E-08
Layer    4
   1.145427427372E-08
Layer    5
   1.305900622962E-08
Layer    6
   1.534544180201E-08
Layer    7
   1.755421511331E-08
Layer    8
   2.055636789863E-08
Layer    9
   2.468575340621E-08
Layer   10
   2.850626377581E-08
Layer   11
   3.348603227540E-08
Layer   12
   3.920725215500E-08
Layer   13
   4.551986460937E-08
Layer   14
   5.225872897025E-08
Layer   15
   6.038164349684E-08
Layer   16
   6.940650341514E-08
Layer   17
   7.985985894695E-08
Layer   18
   9.278175447151E-08
Layer   19
   1.084119511284E-07
Layer   20
   1.266466442959E-07
Layer   21
   1.489570791303E-07
Layer   22
   1.741088462960E-07
Layer   23
   2.037253527959E-07
Layer   24
   2.404573683866E-07
Layer   25
   2.817349121661E-07
Layer   26
   3.299303247337E-07
Layer   27
   3.893775606967E-07
Layer   28
   4.583352756110E-07
Layer   29
   5.430119900278E-07
Layer   30
   6.450644547129E-07
Layer   31
   7.651965394162E-07
Layer   32
   9.042676118020E-07
Layer   33
   1.225498559451E-06
Layer   34
   2.489033101199E-06
Layer   35
   8.706905988824E-06
Layer   36
   3.697826788018E-05
Layer   37
   1.451856177805E-04
Layer   38
   4.828118734297E-04
Layer   39
   1.303358001913E-03
Layer   40
   2.705347154246E-03
Layer   41
   3.988240356615E-03
Layer   42
   3.816062592041E-03
Layer   43
   2.232416879637E-03
Layer   44
   8.141834853868E-04
Layer   45
   2.097907129068E-04
Layer   46
   4.681940571248E-05
Layer   47
   1.131941334895E-05
Layer   48
   3.232066932945E-06
Layer   49
   5.134867445581E-07
Layer   50
   3.775610122348E-08
drint_bdrf
   1.534243110885E-03
   0.000000000000E+00
   0.000000000000E+00
   0.000000000000E+00
   0.000000000000E+00
   0.000000000000E+00
   0.000000000000E+00
   0.000000000000E+00
   4.986996992927E-03
   3.570739079239E-03
   0.000000000000E+00
   0.000000000000E+00
   0.000000000000E+00
   0.000000000000E+00
   0.000000000000E+00
   0.000000000000E+00
   5.768576713224E-03
   7.468603855315E-03
   3.535836210436E-03
   0.000000000000E+00
   0.000000000000E+00
   0.000000000000E+00
   0.000000000000E+00
   0.000000000000E+00
   5.525755597118E-03
   6.691948905326E-03
   5.859249037145E-03
   2.257291891645E-03
   0.000000000000E+00
   0.000000000000E+00
   0.000000000000E+00
   0.000000000000E+00
   4.177284419675E-03
   4.878836873148E-03
   4.073109296384E-03
   2.985203357510E-03
   9.498822419165E-04
   0.000000000000E+00
   0.000000000000E+00
   0.000000000000E+00
   2.220786231099E-03
   2.540905421461E-03
   2.060823368123E-03
   1.461502245077E-03
   9.052047334973E-04
   2.113185255225E-04
   0.000000000000E+00
   0.000000000000E+00
   6.817091638106E-04
   7.698532426433E-04
   6.125760664035E-04
   4.245908614991E-04
   2.578014230798E-04
   1.185123412271E-04
   1.641392728461E-05
   0.000000000000E+00
   5.714529834196E-05
   6.422744294351E-05
   5.074327973644E-05
   3.486355290409E-05
   2.100263044136E-05
   9.594441643838E-06
   2.644243452953E-06
   1.062701399639E-07
   2.532909216019E-06
   0.000000000000E+00
   0.000000000000E+00
   0.000000000000E+00
   0.000000000000E+00
   0.000000000000E+00
   0.000000000000E+00
   0.000000000000E+00
   1.503619688702E-05
   1.108067391258E-05
   0.000000000000E+00
   0.000000000000E+00
   0.000000000000E+00
   0.000000000000E+00
   0.000000000000E+00
   0.000000000000E+00
   2.724778074583E-05
   2.986835104711E-05
   1.538145085829E-05
   0.000000000000E+00
   0.000000000000E+00
   0.000000000000E+00
   0.000000000000E+00
   0.000000000000E+00
   3.046988863766E-05
   2.942326565783E-05
   2.537201561337E-05
   8.786009537982E-06
   0.000000000000E+00
   0.000000000000E+00
   0.000000000000E+00
   0.000000000000E+00
   1.835055833451E-05
   1.730481693022E-05
   1.433729930562E-05
   9.454685708485E-06
   2.503511661157E-06
   0.000000000000E+00
   0.000000000000E+00
   0.000000000000E+00
   4.820020619430E-06
   4.639308892371E-06
   3.979204032256E-06
   2.738578125713E-06
   1.470580701284E-06
   2.133488118678E-07
   0.000000000000E+00
   0.000000000000E+00
   7.950690835385E-07
   7.886595234344E-07
   7.094952152837E-07
   5.152755875448E-07
   2.812760506697E-07
   8.045203483169E-08
   7.453491365939E-09
   0.000000000000E+00
   5.030194967006E-08
   5.021803808192E-08
   4.561801215316E-08
   3.347350393097E-08
   1.832753187223E-08
   5.228363940143E-09
   9.656159047898E-10
   3.125513974510E-11
  -4.831289649315E-08
   0.000000000000E+00
   0.000000000000E+00
   0.000000000000E+00
   0.000000000000E+00
   0.000000000000E+00
   0.000000000000E+00
   0.000000000000E+00
  -9.354954484797E-07
  -9.539552363244E-07
   0.000000000000E+00
   0.000000000000E+00
   0.000000000000E+00
   0.000000000000E+00
   0.000000000000E+00
   0.000000000000E+00
  -2.476807949533E-06
  -2.999613598275E-06
  -9.603610833848E-07
   0.000000000000E+00
   0.000000000000E+00
   0.000000000000E+00
   0.000000000000E+00
   0.000000000000E+00
  -3.467398560829E-06
  -3.861032549581E-06
  -1.696240052432E-06
  -4.844789359354E-07
   0.000000000000E+00
   0.000000000000E+00
   0.000000000000E+00
   0.000000000000E+00
  -2.149716529802E-06
  -2.387086377840E-06
  -1.032045365853E-06
  -5.729948513832E-07
  -1.690205533909E-07
   0.000000000000E+00
   0.000000000000E+00
   0.000000000000E+00
  -4.437941302876E-07
  -4.930606853867E-07
  -2.138309879527E-07
  -1.193845312822E-07
  -7.046457028799E-08
  -7.343474173672E-09
   0.000000000000E+00
   0.000000000000E+00
  -5.748223760751E-08
  -6.497488095988E-08
  -3.095789813772E-08
  -2.008178870668E-08
  -1.199134328355E-08
  -2.493625694884E-09
  -1.997007640370E-10
   0.000000000000E+00
  -3.577086744446E-09
  -4.093466113939E-09
  -2.073563008400E-09
  -1.457940629736E-09
  -8.753796795170E-10
  -1.818403286033E-10
  -2.830030617773E-11
  -9.875946544002E-13
  -8.956198315777E-10
   0.000000000000E+00
   0.000000000000E+00
   0.000000000000E+00
   0.000000000000E+00
   0.000000000000E+00
   0.000000000000E+00
   0.000000000000E+00
  -5.839977613900E-08
  -1.683093812800E-07
   0.000000000000E+00
   0.000000000000E+00
   0.000000000000E+00
   0.000000000000E+00
   0.000000000000E+00
   0.000000000000E+00
  -2.214613566291E-07
  -6.635590819238E-07
   2.390053350271E-08
   0.000000000000E+00
   0.000000000000E+00
   0.000000000000E+00
   0.000000000000E+00
   0.000000000000E+00
  -3.859461946291E-07
  -1.180262983711E-06
  -1.651660568422E-08
  -1.011903213979E-07
   0.000000000000E+00
   0.000000000000E+00
   0.000000000000E+00
   0.000000000000E+00
  -2.805529014715E-07
  -8.486246155892E-07
   2.704366223027E-08
  -7.920380275733E-08
  -4.076623629592E-09
   0.000000000000E+00
   0.000000000000E+00
   0.000000000000E+00
  -4.587792751260E-08
  -1.396212380079E-07
   8.735563715278E-10
  -1.912362754478E-08
  -5.824659452389E-09
  -8.432454387918E-10
   0.000000000000E+00
   0.000000000000E+00
  -4.062405959151E-09
  -1.224834471166E-08
   5.578318448029E-10
  -8.577661414627E-10
   9.233446640018E-11
  -4.995759625875E-11
   2.192254118090E-12
   0.000000000000E+00
  -2.601587909225E-10
  -7.905711541048E-10
   9.870751810317E-12
  -9.989261226314E-11
  -2.680664985876E-11
  -8.546533463889E-12
  -1.931530099654E-13
  -2.134830518030E-14
  -1.385348200799E-10
   0.000000000000E+00
   0.000000000000E+00
   0.000000000000E+00
   0.000000000000E+00
   0.000000000000E+00
   0.000000000000E+00
   0.000000000000E+00
  -2.061177281290E-09
  -7.101618056366E-09
   0.000000000000E+00
   0.000000000000E+00
   0.000000000000E+00
   0.000000000000E+00
   0.000000000000E+00
   0.000000000000E+00
  -3.842294470663E-09
  -3.700577365094E-08
   4.736724804888E-09
   0.000000000000E+00
   0.000000000000E+00
   0.000000000000E+00
   0.000000000000E+00
   0.000000000000E+00
  -8.662015628258E-09
  -8.137808381417E-08
   6.102152247940E-09
  -8.462628759900E-09
   0.000000000000E+00
   0.000000000000E+00
   0.000000000000E+00
   0.000000000000E+00
  -7.106599746077E-09
  -6.733860238776E-08
   9.278826490526E-09
  -5.292864146150E-09
   1.499269482494E-09
   0.000000000000E+00
   0.000000000000E+00
   0.000000000000E+00
  -1.022240113824E-09
  -9.637793097080E-09
   9.737149207774E-10
  -1.487401535901E-09
  -1.889343982382E-10
  -5.716024509192E-11
   0.000000000000E+00
   0.000000000000E+00
  -5.935125114005E-11
  -5.605909906790E-10
   6.414038840581E-11
  -7.105946445501E-11
   2.100156103115E-12
  -4.801207410789E-12
  -8.561203734057E-14
   0.000000000000E+00
  -3.947241952259E-12
  -3.760175919924E-11
   6.641506925468E-12
   5.247051210500E-14
   4.221755043626E-12
   2.542049212447E-13
   2.219879611166E-14
   1.900003837082E-15
   1.393918987689E-12
   0.000000000000E+00
   0.000000000000E+00
   0.000000000000E+00
   0.000000000000E+00
   0.000000000000E+00
   0.000000000000E+00
   0.000000000000E+00
   4.673796651500E-11
   2.102224619055E-10
   0.000000000000E+00
   0.000000000000E+00
   0.000000000000E+00
   0.000000000000E+00
   0.000000000000E+00
   0.000000000000E+00
   9.027450506344E-11
   2.444085172884E-09
   2.690349207063E-10
   0.000000000000E+00
   0.000000000000E+00
   0.000000000000E+00
   0.000000000000E+00
   0.000000000000E+00
   2.153203125737E-10
   6.052041915765E-09
   7.131995529908E-10
   1.023970062668E-10
   0.000000000000E+00
   0.000000000000E+00
   0.000000000000E+00
   0.000000000000E+00
   2.675991490467E-10
   7.538619962855E-09
   8.423594950514E-10
   1.390462116471E-10
   1.424377253607E-11
   0.000000000000E+00
   0.000000000000E+00
   0.000000000000E+00
   3.670169781079E-11
   1.036718739747E-09
   1.083968155477E-10
   3.484312227121E-13
  -1.949212148757E-11
  -2.951982791617E-12
   0.000000000000E+00
   0.000000000000E+00
   1.477505630201E-12
   3.984864585093E-11
   9.199205964186E-12
   1.270338737477E-11
   1.507479033577E-11
   1.951943445122E-12
   7.846227650035E-14
   0.000000000000E+00
   1.094522719719E-13
   3.018975113453E-12
   5.096917785217E-13
   4.902728538696E-13
   5.533272171377E-13
   6.681314435512E-14
   8.841669488927E-15
   2.182188719225E-16
  -5.225097969289E-14
   0.000000000000E+00
   0.000000000000E+00
   0.000000000000E+00
   0.000000000000E+00
   0.000000000000E+00
   0.000000000000E+00
   0.000000000000E+00
  -7.093696717776E-12
  -2.341679668913E-10
   0.000000000000E+00
   0.000000000000E+00
   0.000000000000E+00
   0.000000000000E+00
   0.000000000000E+00
   0.000000000000E+00
   2.174296512544E-12
   2.491676087417E-10
   3.684475616506E-10
   0.000000000000E+00
   0.000000000000E+00
   0.000000000000E+00
   0.000000000000E+00
   0.000000000000E+00
   7.810514471034E-12
   5.951318693012E-10
   3.375876949112E-10
  -1.320002153658E-10
   0.000000000000E+00
   0.000000000000E+00
   0.000000000000E+00
   0.000000000000E+00
   1.338248539146E-11
   1.066687913303E-09
   9.402709507154E-10
  -2.209700602722E-10
   9.261077848344E-11
   0.000000000000E+00
   0.000000000000E+00
   0.000000000000E+00
   2.006951915093E-12
   1.573075095966E-10
   1.205123428386E-10
  -4.624541512961E-11
  -4.163425966653E-12
  -2.438629140076E-12
   0.000000000000E+00
   0.000000000000E+00
   3.461703616659E-14
   3.061420218957E-12
   4.759015012318E-12
   9.161450632958E-13
   4.104671756876E-12
   4.719671545131E-13
   1.345901895313E-14
   0.000000000000E+00
   8.646904369386E-16
   1.387801791511E-13
   5.986669116975E-13
   3.296628693918E-13
   8.501358707559E-13
   1.113318344767E-13
   4.033582323886E-15
   2.395183525570E-16
  -1.602520765964E-16
   0.000000000000E+00
   0.000000000000E+00
   0.000000000000E+00
   0.000000000000E+00
   0.000000000000E+00
   0.000000000000E+00
   0.000000000000E+00
  -5.161030962999E-14
  -3.738559937285E-12
   0.000000000000E+00
   0.000000000000E+00
   0.000000000000E+00
   0.000000000000E+00
   0.000000000000E+00
   0.000000000000E+00
  -3.737403401282E-14
   3.522136362457E-13
   2.216272124407E-11
   0.000000000000E+00
   0.000000000000E+00
   0.000000000000E+00
   0.000000000000E+00
   0.000000000000E+00
   5.781924621068E-14
   1.041935187593E-11
   1.521584079963E-11
  -4.477901280354E-12
   0.000000000000E+00
   0.000000000000E+00
   0.000000000000E+00
   0.000000000000E+00
   1.527116295744E-13
   3.279508295447E-11
   8.050423898476E-11
  -1.663680570831E-11
   3.989903257194E-12
   0.000000000000E+00
   0.000000000000E+00
   0.000000000000E+00
   2.139494728302E-14
   4.568991616209E-12
   1.108295788519E-11
  -2.364885835514E-12
   8.659294423459E-13
   4.339616054054E-14
   0.000000000000E+00
   0.000000000000E+00
   1.681692363703E-16
   6.794062142794E-14
   3.318685726295E-13
   2.401160048115E-14
   3.220092564973E-13
   4.385829973373E-14
   9.572979279533E-16
   0.000000000000E+00
  -8.512942025513E-17
  -3.921075048895E-15
   6.486717936818E-14
   2.837556631606E-14
   1.368844283447E-13
   1.887687426891E-14
   5.243994789879E-16
   4.614858548436E-17
  -4.947954827567E-19
   0.000000000000E+00
   0.000000000000E+00
   0.000000000000E+00
   0.000000000000E+00
   0.000000000000E+00
   0.000000000000E+00
   0.000000000000E+00
  -5.652089624012E-16
  -1.612543884258E-13
   0.000000000000E+00
   0.000000000000E+00
   0.000000000000E+00
   0.000000000000E+00
   0.000000000000E+00
   0.000000000000E+00
  -2.740816505766E-15
  -1.570348510497E-12
  -3.756836588319E-12
   0.000000000000E+00
   0.000000000000E+00
   0.000000000000E+00
   0.000000000000E+00
   0.000000000000E+00
   3.672221274819E-16
   2.005168575051E-13
   1.162215571054E-12
   6.791675608366E-14
   0.000000000000E+00
   0.000000000000E+00
   0.000000000000E+00
   0.000000000000E+00
  -2.346769464307E-15
  -1.295974213492E-12
  -7.198277222848E-12
  -4.387798547730E-13
   3.689815090027E-13
   0.000000000000E+00
   0.000000000000E+00
   0.000000000000E+00
  -4.207382579862E-16
  -2.354165882744E-13
  -1.242240933184E-12
   1.187581041307E-14
  -3.034716184137E-13
  -5.120386438271E-14
   0.000000000000E+00
   0.000000000000E+00
  -6.232849124033E-17
  -3.649286667270E-14
  -1.585648926240E-13
   4.949389087057E-14
  -2.747019987364E-13
  -4.047686933244E-14
  -6.855841682817E-16
   0.000000000000E+00
  -1.486651313894E-17
  -8.734031954138E-15
  -3.735178071785E-14
   1.268433072947E-14
  -6.975271104205E-14
  -1.012054499671E-14
  -2.418704848340E-16
  -1.726683549261E-17
  -4.964302507447E-21
   0.000000000000E+00
   0.000000000000E+00
   0.000000000000E+00
   0.000000000000E+00
   0.000000000000E+00
   0.000000000000E+00
   0.000000000000E+00
  -1.227165937696E-17
  -7.504418299342E-15
   0.000000000000E+00
   0.000000000000E+00
   0.000000000000E+00
   0.000000000000E+00
   0.000000000000E+00
   0.000000000000E+00
  -9.567697776026E-17
  -1.123522650213E-13
  -3.512707715819E-13
   0.000000000000E+00
   0.000000000000E+00
   0.000000000000E+00
   0.000000000000E+00
   0.000000000000E+00
  -2.235985289916E-17
  -2.101197543924E-14
   3.078139600287E-14
   1.129862282999E-13
   0.000000000000E+00
   0.000000000000E+00
   0.000000000000E+00
   0.000000000000E+00
  -6.327968515572E-17
  -8.773394382542E-14
  -9.637084822229E-13
  -5.396494359244E-13
   8.372921916019E-14
   0.000000000000E+00
   0.000000000000E+00
   0.000000000000E+00
  -1.303119523619E-17
  -1.682453551734E-14
  -1.522687925151E-13
  -5.930105583587E-14
  -4.000404971764E-14
  -6.928152476607E-15
   0.000000000000E+00
   0.000000000000E+00
  -2.693592627121E-17
  -2.992994328893E-14
  -1.345719138233E-13
   7.960115074212E-14
  -3.732610234817E-13
  -5.055759170313E-14
  -9.398472489337E-16
   0.000000000000E+00
  -7.493424758307E-18
  -8.320161721014E-15
  -3.720736078056E-14
   2.240246006213E-14
  -1.042097403065E-13
  -1.409279293566E-14
  -3.920308311394E-16
  -3.620368659172E-17
  -1.930916853969E-25
   0.000000000000E+00
   0.000000000000E+00
   0.000000000000E+00
   0.000000000000E+00
   0.000000000000E+00
   0.000000000000E+00
   0.000000000000E+00
  -1.963643860612E-21
  -3.827100019369E-18
   0.000000000000E+00
   0.000000000000E+00
   0.000000000000E+00
   0.000000000000E+00
   0.000000000000E+00
   0.000000000000E+00
  -5.633265017303E-20
  -1.515051218725E-16
  -2.023382279685E-16
   0.000000000000E+00
   0.000000000000E+00
   0.000000000000E+00
   0.000000000000E+00
   0.000000000000E+00
  -9.605807434258E-22
   2.221058842771E-16
   1.300263716841E-14
   1.105354573669E-14
   0.000000000000E+00
   0.000000000000E+00
   0.000000000000E+00
   0.000000000000E+00
   1.515936490789E-19
   4.065551360453E-16
   1.022310729189E-15
  -3.510286291321E-14
  -1.285522140995E-15
   0.000000000000E+00
   0.000000000000E+00
   0.000000000000E+00
   1.596232511143E-20
   2.959409338232E-17
  -6.574957412485E-16
  -4.983383162480E-15
   1.794839179407E-15
   2.407118318103E-16
   0.000000000000E+00
   0.000000000000E+00
   1.039505765759E-19
   7.823289209763E-16
   2.985641699974E-14
   2.497615841706E-14
  -8.047036323600E-14
  -9.912274001407E-15
  -1.737177051497E-16
   0.000000000000E+00
   2.803794007153E-20
   2.112349115073E-16
   8.065851276978E-15
   6.758307711182E-15
  -2.173950234854E-14
  -2.678493215874E-15
  -6.951390603243E-17
  -6.100837040915E-18
  -8.447234602612E-26
   0.000000000000E+00
   0.000000000000E+00
   0.000000000000E+00
   0.000000000000E+00
   0.000000000000E+00
   0.000000000000E+00
   0.000000000000E+00
  -1.363049251173E-21
  -5.498505580676E-18
   0.000000000000E+00
   0.000000000000E+00
   0.000000000000E+00
   0.000000000000E+00
   0.000000000000E+00
   0.000000000000E+00
  -4.338148382717E-20
  -3.500146968800E-16
  -5.568999443098E-15
   0.000000000000E+00
   0.000000000000E+00
   0.000000000000E+00
   0.000000000000E+00
   0.000000000000E+00
  -3.853629709730E-20
  -3.112119631691E-16
  -9.858656501682E-15
  -3.936005851300E-15
   0.000000000000E+00
   0.000000000000E+00
   0.000000000000E+00
   0.000000000000E+00
   7.174926559016E-20
   5.783054762937E-16
   1.849319116737E-14
   1.810572301824E-14
  -1.358737483306E-14
   0.000000000000E+00
   0.000000000000E+00
   0.000000000000E+00
  -9.274693887196E-20
  -7.507852307367E-16
  -2.351016467252E-14
  -1.350975045729E-14
   5.387656126906E-14
   6.378085255367E-15
   0.000000000000E+00
   0.000000000000E+00
  -1.634094413312E-19
  -1.322336370619E-15
  -4.147846940885E-14
  -2.521155600557E-14
   9.225458199505E-14
   1.074176530667E-14
   2.077126588674E-16
   0.000000000000E+00
  -3.691362329042E-20
  -2.987106094765E-16
  -9.369911034395E-15
  -5.696939387030E-15
   2.083669765074E-14
   2.412064200524E-15
   7.102591540551E-17
   5.446731236879E-18
  -1.347731994930E-29
   0.000000000000E+00
   0.000000000000E+00
   0.000000000000E+00
   0.000000000000E+00
   0.000000000000E+00
   0.000000000000E+00
   0.000000000000E+00
  -1.084643936300E-24
  -1.392792157286E-20
   0.000000000000E+00
   0.000000000000E+00
   0.000000000000E+00
   0.000000000000E+00
   0.000000000000E+00
   0.000000000000E+00
  -1.290737952244E-22
  -2.314309572954E-18
  -4.646660506822E-17
   0.000000000000E+00
   0.000000000000E+00
   0.000000000000E+00
   0.000000000000E+00
   0.000000000000E+00
  -4.205737302692E-22
  -3.622278948817E-18
   4.118288446987E-16
   2.321505710183E-15
   0.000000000000E+00
   0.000000000000E+00
   0.000000000000E+00
   0.000000000000E+00
   2.925170274302E-21
   5.306511706843E-17
   2.218544202172E-15
  -8.813888978712E-15
  -2.640102283012E-14
   0.000000000000E+00
   0.000000000000E+00
   0.000000000000E+00
  -1.363268670622E-21
  -2.125525385928E-17
  -4.001024445143E-16
   7.035578366089E-15
   1.037927608553E-14
   1.279598561342E-15
   0.000000000000E+00
   0.000000000000E+00
  -1.050962601514E-20
  -1.685235200437E-16
  -3.934984365481E-15
   5.030939029422E-14
   9.910877518475E-14
   9.804125134889E-15
   2.225587407407E-16
   0.000000000000E+00
  -2.622657215854E-21
  -4.205605785740E-17
  -9.822110529898E-16
   1.255348952516E-14
   2.473786565153E-14
   2.443763145877E-15
   8.959612855034E-17
   8.498920327536E-18
   2.749085454817E-30
   0.000000000000E+00
   0.000000000000E+00
   0.000000000000E+00
   0.000000000000E+00
   0.000000000000E+00
   0.000000000000E+00
   0.000000000000E+00
   2.849924909602E-25
   7.365822124681E-21
   0.000000000000E+00
   0.000000000000E+00
   0.000000000000E+00
   0.000000000000E+00
   0.000000000000E+00
   0.000000000000E+00
   3.501696247527E-23
   1.799340478508E-18
   1.084666288173E-16
   0.000000000000E+00
   0.000000000000E+00
   0.000000000000E+00
   0.000000000000E+00
   0.000000000000E+00
   2.514131280960E-22
   1.273450067827E-17
   1.486238466511E-15
   4.661844225344E-15
   0.000000000000E+00
   0.000000000000E+00
   0.000000000000E+00
   0.000000000000E+00
   1.201411416871E-22
   5.498984732734E-18
   4.834307260353E-16
   1.698495192103E-16
  -5.210200686344E-15
   0.000000000000E+00
   0.000000000000E+00
   0.000000000000E+00
   1.200510250044E-22
   6.460969754214E-18
   8.567286062115E-16
   7.230754620371E-15
   6.889985216315E-15
   6.128947578810E-16
   0.000000000000E+00
   0.000000000000E+00
   4.367738104759E-22
   2.382612139072E-17
   3.240589626588E-15
   2.864302802027E-14
   3.079121054047E-14
   2.587658985888E-15
   4.609681426230E-17
   0.000000000000E+00
   1.007853696456E-22
   5.497970131179E-18
   7.478044385307E-16
   6.610117984867E-15
   7.106900238267E-15
   5.964988842877E-16
   1.827425598324E-17
   1.762205062815E-18
   2.762599306559E-32
   0.000000000000E+00
   0.000000000000E+00
   0.000000000000E+00
   0.000000000000E+00
   0.000000000000E+00
   0.000000000000E+00
   0.000000000000E+00
   6.887038894357E-27
   4.286648127716E-22
   0.000000000000E+00
   0.000000000000E+00
   0.000000000000E+00
   0.000000000000E+00
   0.000000000000E+00
   0.000000000000E+00
   1.484180194817E-24
   1.842555188125E-19
   1.968776349075E-17
   0.000000000000E+00
   0.000000000000E+00
   0.000000000000E+00
   0.000000000000E+00
   0.000000000000E+00
   1.905102455226E-23
   2.354084682501E-18
   4.981270912106E-16
   3.096058239400E-15
   0.000000000000E+00
   0.000000000000E+00
   0.000000000000E+00
   0.000000000000E+00
   2.807547752788E-23
   3.452996306148E-18
   7.233578547159E-16
   8.828527524803E-15
   6.169700630428E-15
   0.000000000000E+00
   0.000000000000E+00
   0.000000000000E+00
  -2.704350302833E-23
  -3.241579657489E-18
  -6.408522740442E-16
  -6.957595291177E-15
  -8.388590611065E-15
  -8.181814912312E-16
   0.000000000000E+00
   0.000000000000E+00
  -4.492399021214E-23
  -5.396708472594E-18
  -1.072428091434E-15
  -1.177516578406E-14
  -1.442653028209E-14
  -1.352406472429E-15
  -5.152856100257E-17
   0.000000000000E+00
  -8.397570369423E-24
  -1.008807463715E-18
  -2.004734350716E-16
  -2.201283173370E-15
  -2.697113093310E-15
  -2.517345694463E-16
  -1.758725984118E-17
  -1.487074043560E-18
  -3.358542020499E-35
   0.000000000000E+00
   0.000000000000E+00
   0.000000000000E+00
   0.000000000000E+00
   0.000000000000E+00
   0.000000000000E+00
   0.000000000000E+00
  -2.047600057083E-29
  -3.103334014738E-24
   0.000000000000E+00
   0.000000000000E+00
   0.000000000000E+00
   0.000000000000E+00
   0.000000000000E+00
   0.000000000000E+00
  -7.992978936659E-27
  -2.394284753527E-21
  -4.501497038937E-19
   0.000000000000E+00
   0.000000000000E+00
   0.000000000000E+00
   0.000000000000E+00
   0.000000000000E+00
  -1.932108658000E-25
  -5.671072548883E-20
  -2.036087155606E-17
  -2.098173644370E-16
   0.000000000000E+00
   0.000000000000E+00
   0.000000000000E+00
   0.000000000000E+00
  -9.040622980948E-25
  -2.586635708829E-19
  -8.721924749406E-17
  -1.546810413736E-15
  -2.006033773362E-15
   0.000000000000E+00
   0.000000000000E+00
   0.000000000000E+00
  -1.448929667217E-24
  -4.090335177203E-19
  -1.331413335286E-16
  -2.135218910749E-15
  -3.768596765400E-15
  -4.529063440108E-16
   0.000000000000E+00
   0.000000000000E+00
  -9.144082325859E-25
  -2.578683301541E-19
  -8.370024388418E-17
  -1.330741224729E-15
  -2.248453892813E-15
  -3.211140015506E-16
  -2.123606622948E-17
   0.000000000000E+00
  -1.283077310549E-25
  -3.618311384859E-20
  -1.174415448103E-17
  -1.867019278072E-16
  -3.153066786897E-16
  -4.468883789687E-17
  -5.723570415396E-18
  -3.849978558411E-19
drint_bdrf_0
   5.727426448966E-08
   6.098923558474E-08
   4.416318061127E-08
   2.690629728578E-08
   1.434294614929E-08
   5.864816206678E-09
   1.463150114199E-09
   1.124360183367E-10
   1.450187469515E-08
   1.250270268252E-08
   8.667963421631E-09
   4.286971616430E-09
   2.017176069291E-09
   6.575656030439E-10
   1.402724481587E-10
   9.311825457793E-12
  -3.291918496028E-09
  -3.555162320912E-09
  -1.286216006483E-09
  -4.608591252449E-10
  -2.592846724538E-10
  -5.456994762509E-11
  -1.147014330449E-11
  -9.122773981792E-13
  -9.967306318553E-10
  -3.012204460403E-09
   1.075221699315E-10
  -2.614896452140E-10
  -1.448384288946E-11
  -1.832668563718E-11
   5.378160011723E-13
  -8.181358814673E-14
  -4.761386925365E-11
  -4.503775543426E-10
   5.629766249918E-11
  -4.726836265790E-11
   1.000405717987E-11
  -2.682895251728E-12
  -6.891410311487E-14
   2.254429096686E-14
   2.949256102846E-12
   8.310309314175E-11
   9.235938537801E-12
   1.406883010939E-12
   1.570266091516E-13
  -2.364936694563E-13
   1.653665775471E-13
   6.037436624859E-15
   2.537299640928E-13
   2.007414723677E-11
   1.667161489853E-11
  -4.928567016435E-12
   1.710845841560E-12
  -3.187288441015E-13
   6.972708773542E-14
   1.520719651624E-14
   3.904498926850E-15
   8.278628175723E-13
   1.977042461677E-12
  -4.395121734927E-13
   9.935970692770E-14
   7.802841871382E-15
   7.711777349690E-15
   3.374970142103E-15
  -8.529115869686E-17
  -4.719836656978E-14
  -2.600822558864E-13
  -1.307406129465E-14
   1.299297148788E-14
  -1.255248421106E-14
  -9.705419617064E-15
  -2.459419181461E-15
  -3.177954294665E-18
  -4.329849868882E-15
  -4.556504186743E-14
  -2.392244386681E-14
   3.840789681754E-15
  -2.353655315364E-15
  -1.713172986458E-14
  -4.781597046007E-15
   8.149801806634E-21
   2.141947694695E-17
   2.964239472070E-17
  -1.929750538222E-15
  -6.987381942054E-17
   1.061684140626E-16
  -4.373769640049E-15
  -1.181618585007E-15
   3.401316472140E-21
   2.735987180600E-17
   8.834001510846E-16
   1.026581128662E-15
  -9.693896713767E-16
   3.955340793252E-15
   6.584074256312E-15
   1.486845117713E-15
   1.137091714596E-23
   7.327729153621E-19
   1.046403483679E-16
   4.092610325635E-16
  -2.360696175606E-15
   1.160775915513E-15
   8.867292037767E-15
   2.212792649006E-15
   2.262893179429E-23
   1.111402819436E-18
   1.203157979476E-16
   5.849197101570E-16
  -6.078009011397E-16
   8.546073543767E-16
   3.592887554803E-15
   8.292128667838E-16
   2.176247512837E-24
   2.810830113609E-19
   6.495616075413E-17
   9.300750113700E-16
   1.512220222686E-15
  -2.194284395742E-15
  -3.541397876352E-15
  -6.619067719836E-16
  -1.034093750517E-25
  -3.388752911180E-20
  -1.514964278243E-17
  -4.446548394625E-16
  -2.531274732687E-15
  -4.428687323026E-15
  -2.813055692038E-15
  -3.947484605211E-16
drint_bdrf_v
   1.597481556745E-03
   3.491452340904E-03
   4.774555953752E-03
   5.003051540041E-03
   3.949413373450E-03
   2.148742415784E-03
   6.689979874473E-04
   5.636467232732E-05
   1.041589678436E-05
   5.285224779220E-05
   1.058233301126E-04
   1.222199928526E-04
   7.401282873706E-05
   1.934872414627E-05
   3.168754312053E-06
   2.001648474045E-07
  -8.752158883213E-07
  -1.600183372943E-05
  -4.452683586043E-05
  -6.269139014524E-05
  -3.887441500436E-05
  -8.025077341008E-06
  -1.038274228370E-06
  -6.455843694859E-08
  -1.071709507600E-07
  -6.664308049112E-06
  -2.651189446176E-05
  -4.615467177263E-05
  -3.356974169805E-05
  -5.487837685972E-06
  -4.861702308831E-07
  -3.112211833685E-08
  -1.735108597190E-07
  -9.403331884687E-07
  -5.017518498199E-06
  -1.067667252803E-05
  -8.937266892318E-06
  -1.270549404986E-06
  -7.408459576636E-08
  -5.025960704192E-09
   2.818553215707E-08
   1.508561850240E-07
   1.737115968498E-06
   4.340407107622E-06
   5.409448229170E-06
   7.443813665480E-07
   2.829530359084E-08
   2.155464691393E-09
  -2.456144236881E-08
  -1.391302506185E-06
   2.635901663893E-06
   3.194369575981E-06
   6.456272371371E-06
   9.125477080582E-07
   2.302200084339E-08
   1.878541635273E-09
  -2.447594957777E-09
  -2.693067024567E-07
   6.685105706872E-07
   6.075818585884E-07
   2.394711806488E-06
   3.316650377439E-07
   7.402762703373E-09
   8.154355675386E-10
  -3.459576220803E-10
  -2.037444396162E-07
  -8.614156806959E-07
   3.097901532147E-07
  -1.693547214657E-06
  -2.432619851873E-07
  -4.212575085478E-09
  -4.186792014732E-10
  -1.863124078199E-10
  -2.067166141865E-07
  -9.194781817973E-07
   5.633147906926E-07
  -2.600085936309E-06
  -3.510797353407E-07
  -6.543155538539E-09
  -9.030483625322E-10
   1.412920471713E-12
   1.065521317161E-08
   4.070669543555E-07
   3.415872355219E-07
  -1.097150662208E-06
  -1.352082835799E-07
  -2.368587154418E-09
  -3.079025624957E-10
  -1.481046537887E-12
  -1.198482794612E-08
  -3.759420427899E-07
  -2.286460223658E-07
   8.358692717582E-07
   9.616291140319E-08
   1.881349301309E-09
   2.184597370551E-10
  -1.413641319931E-13
  -2.266982102060E-09
  -5.296304595622E-08
   6.765510119179E-07
   1.333864897245E-06
   1.314790453210E-07
   2.993538381920E-09
   4.580936010784E-10
   7.244782941974E-15
   3.952309301948E-10
   5.376190861744E-08
   4.752943953405E-07
   5.112040711512E-07
   4.276815079448E-08
   7.651181047890E-10
   1.267335510735E-10
  -7.570260118666E-16
  -9.094617319106E-11
  -1.807495510691E-08
  -1.985145469885E-07
  -2.433045561458E-07
  -2.223606463274E-08
  -8.677097623618E-10
  -1.339790705106E-10
  -3.873665005393E-17
  -1.092244346097E-11
  -3.543935128476E-09
  -5.627941719662E-08
  -9.452139962857E-08
  -1.219732434085E-08
  -9.003822570424E-10
  -1.163239264653E-10
drint_bdrf_ssg
   5.963499562049E-08
drint_emi
   1.179701116629E-01
   1.256219874018E-01
   9.096468360655E-02
   5.541998528522E-02
   2.954274443999E-02
   1.207999838931E-02
   3.013709279197E-03
   2.315889999864E-04
   2.987009597333E-02
   2.575232077946E-02
   1.785375372082E-02
   8.830048273727E-03
   4.154858875246E-03
   1.354414383283E-03
   2.889248167561E-04
   1.917994231492E-05
  -6.780497244651E-03
  -7.322711163815E-03
  -2.649270964184E-03
  -9.492501204590E-04
  -5.340590932840E-04
  -1.123999211886E-04
  -2.362551659942E-05
  -1.879054536792E-06
  -2.053006267048E-03
  -6.204358968406E-03
   2.214677483173E-04
  -5.386007645748E-04
  -2.983295513617E-05
  -3.774821327334E-05
   1.107761300433E-06
  -1.685147459372E-07
  -9.807220612270E-05
  -9.276608062921E-04
   1.159585651700E-04
  -9.736055225785E-05
   2.060575990118E-05
  -5.526067514727E-06
  -1.419451565559E-07
   4.643538500964E-08
   6.074701698492E-06
   1.711707913636E-04
   1.902363496633E-05
   2.897813658124E-06
   3.234340376210E-07
  -4.871155455582E-07
   3.406122067628E-07
   1.243555162408E-08
   5.226178365268E-07
   4.134753038141E-05
   3.433919734641E-05
  -1.015156818595E-05
   3.523898155049E-06
  -6.564986502033E-07
   1.436196937555E-07
   3.132287576428E-08
   8.042253855068E-09
   1.705182421822E-06
   4.072194065598E-06
  -9.052809433022E-07
   2.046551941871E-07
   1.607182798517E-08
   1.588425871844E-08
   6.951562068418E-09
  -1.756776382025E-10
  -9.721637849315E-08
  -5.357019080357E-07
  -2.692917114799E-08
   2.676214720373E-08
  -2.585485780080E-08
  -1.999064407308E-08
  -5.065764843042E-09
  -6.545760584476E-12
  -8.918366339001E-09
  -9.385215375391E-08
  -4.927402209986E-08
   7.911029354416E-09
  -4.847918744021E-09
  -3.528691469217E-08
  -9.848848212557E-09
   1.678647535199E-14
   4.411856022436E-11
   6.105563548160E-11
  -3.974784984217E-09
  -1.439219229230E-10
   2.186793627756E-10
  -9.008829662362E-09
  -2.433827438176E-09
   7.005828666586E-15
   5.635423101103E-11
   1.819574906724E-09
   2.114490538786E-09
  -1.996690988460E-09
   8.146974897059E-09
   1.356148319206E-08
   3.062514833233E-09
   2.342113648026E-17
   1.509321916555E-12
   2.155319442581E-10
   8.429714487125E-10
  -4.862421087724E-09
   2.390896951516E-09
   1.826431890770E-08
   4.557778231045E-09
   4.660972313432E-17
   2.289201194979E-12
   2.478192997354E-10
   1.204782708882E-09
  -1.251912020437E-09
   1.760269222522E-09
   7.400415349008E-09
   1.707963172612E-09
   4.482504740710E-18
   5.789580107620E-13
   1.337928231054E-10
   1.915712998218E-09
   3.114780959979E-09
  -4.519656035611E-09
  -7.294359982423E-09
  -1.363356063969E-09
  -2.129964588902E-19
  -6.979950993557E-14
  -3.120433001840E-11
  -9.158734997341E-10
  -5.213768618862E-09
  -9.121945828073E-09
  -5.794164221237E-09
  -8.130793189817E-10
drint_emi_ssg
   1.228326047493E-01
drint_planck_curve
Layer    1
   5.332442783929E-06
Layer    2
   1.235876894003E-06
Layer    3
   1.415698957494E-06
Layer    4
   1.744298537235E-06
Layer    5
   2.015442984489E-06
Layer    6
   2.113082847047E-06
Layer    7
   2.434457909604E-06
Layer    8
   2.648437231454E-06
Layer    9
   2.749808739610E-06
Layer   10
   3.222381641123E-06
Layer   11
   3.993495287454E-06
Layer   12
   5.355834524996E-06
Layer   13
   6.447710958934E-06
Layer   14
   9.725591266455E-06
Layer   15
   1.203200773934E-05
Layer   16
   1.667197515547E-05
Layer   17
   2.328403853199E-05
Layer   18
   2.770181966363E-05
Layer   19
   3.296386408687E-05
Layer   20
   3.938233609837E-05
Layer   21
   4.678477416018E-05
Layer   22
   5.723823313740E-05
Layer   23
   7.056940258900E-05
Layer   24
   8.664951807089E-05
Layer   25
   1.088987372952E-04
Layer   26
   1.365377664872E-04
Layer   27
   1.681751041706E-04
Layer   28
   2.140969672184E-04
Layer   29
   2.710396179987E-04
Layer   30
   3.476594382487E-04
Layer   31
   4.577438745067E-04
Layer   32
   6.313696088852E-04
Layer   33
   8.335232339454E-04
Layer   34
   1.106610729384E-03
Layer   35
   1.472866441165E-03
Layer   36
   1.941660046446E-03
Layer   37
   2.594435658852E-03
Layer   38
   3.799614412702E-03
Layer   39
   5.698389701353E-03
Layer   40
   8.774461387794E-03
Layer   41
   1.355761124852E-02
Layer   42
   2.005504713451E-02
Layer   43
   2.721844473433E-02
Layer   44
   3.328267092826E-02
Layer   45
   3.654010217103E-02
Layer   46
   3.708060105379E-02
Layer   47
   3.998499801040E-02
Layer   48
   5.402415088472E-02
Layer   49
   6.591006722420E-02
Layer   50
   5.352241741521E-02
